{
    "current_page": 100,
    "total_pages": 252,
    "per_page": 1,
    "total_count": 252,
    "countries": [
        {
            "id": 3,
            "name": "Afghanistan",
            "code": "AF",
            "long_code": "AFG"
        }
    ]
}