{
  "posts": [
    {
      "id": 27980065413139,
      "title": "How do I get around the community?",
      "details": "<p>You can use search to find answers. You can also browse topics and posts using views and filters. See <a href=\"https://support.zendesk.com/hc/en-us/articles/203664386#topic_dqx_znw_3k\" target=\"_blank\" rel=\"nofollow noreferrer\">Getting around the community</a>.</p>",
      "author_id": 26363624373267,
      "vote_sum": 0,
      "vote_count": 0,
      "comment_count": 0,
      "follower_count": 0,
      "topic_id": 27980065395091,
      "html_url": "https://d3v-ampersand.zendesk.com/hc/en-us/community/posts/27980065413139-How-do-I-get-around-the-community",
      "created_at": "2024-04-01T13:01:11Z",
      "updated_at": "2024-04-01T13:01:11Z",
      "url": "https://d3v-ampersand.zendesk.com/api/v2/help_center/community/posts/27980065413139-How-do-I-get-around-the-community.json",
      "featured": false,
      "pinned": false,
      "closed": false,
      "frozen": false,
      "status": "none",
      "non_author_editor_id": null,
      "non_author_updated_at": null,
      "content_tag_ids": []
    }
  ],
  "page": 1,
  "previous_page": null,
  "next_page": "https://d3v-ampersand.zendesk.com/api/v2/help_center/community/posts.json?page=2&per_page=30",
  "per_page": 30,
  "page_count": 2,
  "count": 32
}
