{
  "contacts": [
    {
      "contact_roles": [],
      "id": "65b43daa0e27b60001d54829",
      "first_name": "Dick",
      "last_name": "Collins",
      "name": "Dick Collins",
      "linkedin_url": "http://www.linkedin.com/in/dick-collins-a673133a",
      "title": "President \u0026 CEO",
      "contact_stage_id": "6508dea16d3b6400a3ed7032",
      "owner_id": "65b17ffc0b8782058df8873f",
      "creator_id": "65b17ffc0b8782058df8873f",
      "person_id": "655715edf007cc0001181ec7",
      "email_needs_tickling": false,
      "organization_name": "Infopro Digital",
      "source": "search",
      "original_source": "search",
      "organization_id": "5f450d7a0b514d0001d858fb",
      "headline": "********* \u0026 ***",
      "photo_url": null,
      "present_raw_address": "United States",
      "linkedin_uid": null,
      "extrapolated_email_confidence": 0.65,
      "salesforce_id": null,
      "salesforce_lead_id": null,
      "salesforce_contact_id": null,
      "salesforce_account_id": null,
      "crm_owner_id": null,
      "created_at": "2024-01-26T23:18:01.850Z",
      "emailer_campaign_ids": [],
      "direct_dial_status": null,
      "direct_dial_enrichment_failed_at": null,
      "email_status": "extrapolated",
      "email_source": null,
      "account_id": "65b2d58bcd771300013be005",
      "last_activity_date": null,
      "hubspot_vid": null,
      "hubspot_company_id": null,
      "crm_id": null,
      "sanitized_phone": "+33177929292",
      "merged_crm_ids": null,
      "updated_at": "2024-01-26T23:21:22.406Z",
      "queued_for_crm_push": false,
      "suggested_from_rule_engine_config_id": null,
      "email_unsubscribed": null,
      "person_deleted": null,
      "call_opted_out": null,
      "label_ids": ["65b2b34d159c6806c6ad080c"],
      "has_pending_email_arcgate_request": false,
      "has_email_arcgate_request": false,
      "existence_level": "full",
      "email": "dick.collins@infopro-digital.com",
      "email_from_customer": true,
      "typed_custom_fields": {},
      "custom_field_errors": {},
      "crm_record_url": null,
      "email_status_unavailable_reason": null,
      "email_true_status": "Extrapolated",
      "updated_email_true_status": true,
      "contact_rule_config_statuses": [],
      "source_display_name": "Requested from Apollo",
      "twitter_url": null,
      "contact_campaign_statuses": [],
      "state": null,
      "city": null,
      "country": "United States",
      "account": {
        "id": "65b2d58bcd771300013be005",
        "name": "Infopro Digital",
        "website_url": "http://www.infopro-digital.com",
        "blog_url": null,
        "angellist_url": "http://angel.co/infopro-digital-1",
        "linkedin_url": "http://www.linkedin.com/company/infopro-digital",
        "twitter_url": "https://twitter.com/infoprodigital",
        "facebook_url": "https://facebook.com/infoprodigital/",
        "primary_phone": {
          "number": "+33 1 77 92 92 92",
          "source": "Owler",
          "sanitized_number": "+33177929292"
        },
        "languages": ["French", "English"],
        "alexa_ranking": 69476,
        "phone": "+33 1 77 92 92 92",
        "linkedin_uid": "884370",
        "founded_year": 2001,
        "publicly_traded_symbol": null,
        "publicly_traded_exchange": null,
        "logo_url": "https://zenprospect-production.s3.amazonaws.com/uploads/pictures/67804430b2a5940001f84046/picture",
        "crunchbase_url": null,
        "primary_domain": "infopro-digital.com",
        "sanitized_phone": "+33177929292",
        "domain": "infopro-digital.com",
        "team_id": "6508dea16d3b6400a3ed7030",
        "organization_id": "5f450d7a0b514d0001d858fb",
        "account_stage_id": "6508dea26d3b6400a3ed703b",
        "source": "deployment",
        "original_source": "deployment",
        "creator_id": "65b17ffc0b8782058df8873f",
        "owner_id": "65b17ffc0b8782058df8873f",
        "created_at": "2024-01-25T21:41:31.983Z",
        "phone_status": "no_status",
        "hubspot_id": null,
        "salesforce_id": null,
        "crm_owner_id": null,
        "parent_account_id": null,
        "account_playbook_statuses": [],
        "account_rule_config_statuses": [],
        "existence_level": "full",
        "label_ids": [],
        "typed_custom_fields": {},
        "custom_field_errors": {},
        "modality": "account",
        "source_display_name": "Requested from Apollo",
        "crm_record_url": null
      },
      "contact_emails": [
        {
          "email_md5": "5ef64608e088bc7427819bd95e30efff",
          "email_sha256": "fec26c009c2837e7b9a919b17e7f8a3c780c4dc9db37359beab7f05011e0a403",
          "email_status": "extrapolated",
          "extrapolated_email_confidence": 0.65,
          "position": 0,
          "email_last_engaged_at": null,
          "email": "dick.collins@infopro-digital.com",
          "free_domain": false,
          "source": "Apollo",
          "third_party_vendor_name": null,
          "vendor_validation_statuses": [],
          "email_needs_tickling": false,
          "email_true_status": "Extrapolated",
          "email_status_unavailable_reason": null
        }
      ],
      "organization": {
        "id": "5f450d7a0b514d0001d858fb",
        "name": "Infopro Digital",
        "website_url": "http://www.infopro-digital.com",
        "blog_url": null,
        "angellist_url": "http://angel.co/infopro-digital-1",
        "linkedin_url": "http://www.linkedin.com/company/infopro-digital",
        "twitter_url": "https://twitter.com/infoprodigital",
        "facebook_url": "https://facebook.com/infoprodigital/",
        "primary_phone": {
          "number": "+33 1 77 92 92 92",
          "source": "Owler",
          "sanitized_number": "+33177929292"
        },
        "languages": ["French", "English"],
        "alexa_ranking": 69476,
        "phone": "+33 1 77 92 92 92",
        "linkedin_uid": "884370",
        "founded_year": 2001,
        "publicly_traded_symbol": null,
        "publicly_traded_exchange": null,
        "logo_url": "https://zenprospect-production.s3.amazonaws.com/uploads/pictures/67804430b2a5940001f84046/picture",
        "crunchbase_url": null,
        "primary_domain": "infopro-digital.com",
        "sanitized_phone": "+33177929292"
      },
      "time_zone": null,
      "intent_strength": null,
      "show_intent": false,
      "phone_numbers": [
        {
          "raw_number": "+33 1 77 92 92 92",
          "sanitized_number": "+33177929292",
          "type": "work_hq",
          "position": 0,
          "status": "no_status",
          "dnc_status": null,
          "dnc_other_info": {},
          "dialer_flags": {
            "country_name": "France",
            "country_enabled": true,
            "high_risk_calling_enabled": false,
            "potential_high_risk_number": false
          },
          "source_name": "Apollo",
          "vendor_validation_statuses": [],
          "third_party_vendor_name": null
        }
      ],
      "account_phone_note": null,
      "free_domain": false,
      "email_domain_catchall": true,
      "contact_job_change_event": null
    }
  ],
  "breadcrumbs": [],
  "partial_results_only": false,
  "has_join": false,
  "disable_eu_prospecting": false,
  "partial_results_limit": 10000,
  "pagination": {
    "page": 1,
    "per_page": 1,
    "total_entries": 39010,
    "total_pages": 39010
  },
  "num_fetch_result": null
}
